\relax 
\providecommand\hyper@newdestlabel[2]{}
\providecommand\HyperFirstAtBeginDocument{\AtBeginDocument}
\HyperFirstAtBeginDocument{\ifx\hyper@anchor\@undefined
\global\let\oldcontentsline\contentsline
\gdef\contentsline#1#2#3#4{\oldcontentsline{#1}{#2}{#3}}
\global\let\oldnewlabel\newlabel
\gdef\newlabel#1#2{\newlabelxx{#1}#2}
\gdef\newlabelxx#1#2#3#4#5#6{\oldnewlabel{#1}{{#2}{#3}}}
\AtEndDocument{\ifx\hyper@anchor\@undefined
\let\contentsline\oldcontentsline
\let\newlabel\oldnewlabel
\fi}
\fi}
\global\let\hyper@last\relax 
\gdef\HyperFirstAtBeginDocument#1{#1}
\providecommand\HyField@AuxAddToFields[1]{}
\providecommand\HyField@AuxAddToCoFields[2]{}
\citation{*}
\babel@aux{croatian}{}
\@writefile{toc}{\contentsline {chapter}{\numberline {1}Uvod}{1}{chapter.1}}
\@writefile{lof}{\addvspace {10\p@ }}
\@writefile{lot}{\addvspace {10\p@ }}
\@writefile{toc}{\contentsline {chapter}{\numberline {2}Usluge nad internetom}{2}{chapter.2}}
\@writefile{lof}{\addvspace {10\p@ }}
\@writefile{lot}{\addvspace {10\p@ }}
\@writefile{toc}{\contentsline {section}{\numberline {2.1}TV usluge nad internetom}{2}{section.2.1}}
\citation{ott-video-services-report}
\citation{what-is-ott}
\citation{state-of-ott}
\citation{state-of-ott}
\citation{gartner}
\citation{cisco}
\@writefile{toc}{\contentsline {section}{\numberline {2.2}Postoje\IeC {\'c}e video usluge i trendovi}{3}{section.2.2}}
\providecommand*\caption@xref[2]{\@setref\relax\@undefined{#1}}
\newlabel{fig:ott-stats}{{2.1}{3}{}{figure.caption.2}{}}
\citation{europarl-ott}
\citation{drm-state}
\citation{drm-state}
\citation{drm-state}
\@writefile{toc}{\contentsline {chapter}{\numberline {3}Upravljanje digitalnim pravima}{5}{chapter.3}}
\@writefile{lof}{\addvspace {10\p@ }}
\@writefile{lot}{\addvspace {10\p@ }}
\citation{drm-state}
\citation{drm-state}
\@writefile{toc}{\contentsline {section}{\numberline {3.1}Komponente DRM sustava}{6}{section.3.1}}
\@writefile{lof}{\contentsline {figure}{\numberline {3.1}{\ignorespaces Tri osnovna prava pristupa digitalnom sadr\IeC {\v z}aju\citep  {drm-state}\relax }}{6}{figure.caption.3}}
\newlabel{fig:drm-rights}{{3.1}{6}{Tri osnovna prava pristupa digitalnom sadržaju\citep {drm-state}\relax }{figure.caption.3}{}}
\citation{drm-content}
\citation{drm-content}
\citation{drm-content}
\@writefile{toc}{\contentsline {section}{\numberline {3.2}Tipi\IeC {\v c}ni model DRM sustava}{7}{section.3.2}}
\@writefile{lof}{\contentsline {figure}{\numberline {3.2}{\ignorespaces Komponente DRM sustava\citep  {drm-content}\relax }}{7}{figure.caption.4}}
\newlabel{fig:drm-sustav}{{3.2}{7}{Komponente DRM sustava\citep {drm-content}\relax }{figure.caption.4}{}}
\@writefile{toc}{\contentsline {section}{\numberline {3.3}Postoje\IeC {\'c}i komercijalni sustavi}{8}{section.3.3}}
\citation{azure}
\citation{symmetric-wiki}
\@writefile{toc}{\contentsline {chapter}{\numberline {4}Uloga \IeC {\v s}ifriranja u za\IeC {\v s}titi digitalnih prava}{10}{chapter.4}}
\@writefile{lof}{\addvspace {10\p@ }}
\@writefile{lot}{\addvspace {10\p@ }}
\@writefile{toc}{\contentsline {section}{\numberline {4.1}Simetri\IeC {\v c}no i asimetri\IeC {\v c}no \IeC {\v s}ifriranje}{10}{section.4.1}}
\citation{hackernoon}
\citation{hackernoon}
\citation{hackernoon}
\citation{hackernoon}
\citation{aeswiki}
\@writefile{lof}{\contentsline {figure}{\numberline {4.1}{\ignorespaces Simetri\IeC {\v c}no \IeC {\v s}ifriranje\citep  {hackernoon}\relax }}{11}{figure.caption.5}}
\newlabel{fig:symmetric-key-overview}{{4.1}{11}{Simetrično šifriranje\citep {hackernoon}\relax }{figure.caption.5}{}}
\@writefile{lof}{\contentsline {figure}{\numberline {4.2}{\ignorespaces {Asimetri\IeC {\v c}no \IeC {\v s}ifriranje\citep  {hackernoon}}\relax }}{11}{figure.caption.6}}
\newlabel{fig:asymmetric-key-overview}{{4.2}{11}{{Asimetrično šifriranje\citep {hackernoon}}\relax }{figure.caption.6}{}}
\citation{ecc}
\citation{drm-content}
\citation{drm-content}
\citation{whitebox}
\@writefile{toc}{\contentsline {section}{\numberline {4.2}\IeC {\v S}ifriranje blokova}{13}{section.4.2}}
\citation{modes}
\citation{modes}
\@writefile{lof}{\contentsline {figure}{\numberline {4.3}{\ignorespaces Originalna slika \IeC {\v s}ifrirana u ECB na\IeC {\v c}inu (sredina) i nekom difuznom na\IeC {\v c}inu (desno)\citep  {modes}\relax }}{15}{figure.caption.7}}
\newlabel{fig:ecb-problems}{{4.3}{15}{Originalna slika šifrirana u ECB načinu (sredina) i nekom difuznom načinu (desno)\citep {modes}\relax }{figure.caption.7}{}}
\@writefile{toc}{\contentsline {section}{\numberline {4.3}\IeC {\v S}ifriranje toka}{15}{section.4.3}}
\citation{modes}
\citation{modes}
\citation{modes}
\citation{modes}
\@writefile{toc}{\contentsline {section}{\numberline {4.4}AES CTR \IeC {\v s}ifriranje}{17}{section.4.4}}
\@writefile{lof}{\contentsline {figure}{\numberline {4.4}{\ignorespaces CTR \IeC {\v s}ifriranje\citep  {modes}\relax }}{17}{figure.caption.8}}
\newlabel{fig:ctr-encryption}{{4.4}{17}{CTR šifriranje\citep {modes}\relax }{figure.caption.8}{}}
\@writefile{lof}{\contentsline {figure}{\numberline {4.5}{\ignorespaces CTR de\IeC {\v s}ifriranje\citep  {modes}\relax }}{18}{figure.caption.9}}
\newlabel{fig:ctr-decryption}{{4.5}{18}{CTR dešifriranje\citep {modes}\relax }{figure.caption.9}{}}
\@writefile{lof}{\contentsline {figure}{\numberline {4.6}{\ignorespaces Primjer inicijalizacijskog vektora\relax }}{18}{figure.caption.10}}
\newlabel{fig:ctr-iv}{{4.6}{18}{Primjer inicijalizacijskog vektora\relax }{figure.caption.10}{}}
\@writefile{toc}{\contentsline {chapter}{\numberline {5}Programsko ostvarenje za\IeC {\v s}tite audio strujanja}{20}{chapter.5}}
\@writefile{lof}{\addvspace {10\p@ }}
\@writefile{lot}{\addvspace {10\p@ }}
\@writefile{lof}{\contentsline {figure}{\numberline {5.1}{\ignorespaces Arhitektura sustava bez dodatne za\IeC {\v s}tite\relax }}{20}{figure.caption.11}}
\newlabel{fig:vulnerable-architecture}{{5.1}{20}{Arhitektura sustava bez dodatne zaštite\relax }{figure.caption.11}{}}
\@writefile{lof}{\contentsline {figure}{\numberline {5.2}{\ignorespaces Promet prilikom pregledavanja YouTube sadr\IeC {\v z}aja\relax }}{21}{figure.caption.12}}
\newlabel{fig:youtube-traffic}{{5.2}{21}{Promet prilikom pregledavanja YouTube sadržaja\relax }{figure.caption.12}{}}
\@writefile{toc}{\contentsline {section}{\numberline {5.1}Za\IeC {\v s}tita metodom parcijalnih klju\IeC {\v c}eva}{21}{section.5.1}}
\@writefile{lof}{\contentsline {figure}{\numberline {5.3}{\ignorespaces Prijedlog dodatnog sloja za\IeC {\v s}tite\relax }}{22}{figure.caption.13}}
\newlabel{fig:proposal}{{5.3}{22}{Prijedlog dodatnog sloja zaštite\relax }{figure.caption.13}{}}
\@writefile{toc}{\contentsline {section}{\numberline {5.2}\IeC {\v S}ifriranje i distribucija klju\IeC {\v c}eva}{23}{section.5.2}}
\@writefile{lof}{\contentsline {figure}{\numberline {5.4}{\ignorespaces Prikaz kori\IeC {\v s}tenih skladi\IeC {\v s}ta podataka\relax }}{24}{figure.caption.14}}
\newlabel{fig:aws-buckets}{{5.4}{24}{Prikaz korištenih skladišta podataka\relax }{figure.caption.14}{}}
\@writefile{lof}{\contentsline {figure}{\numberline {5.5}{\ignorespaces Primjer stvaranja kona\IeC {\v c}nog klju\IeC {\v c}a i imena \IeC {\v s}ifriranog zapisa\relax }}{26}{figure.caption.15}}
\newlabel{fig:key-generator}{{5.5}{26}{Primjer stvaranja konačnog ključa i imena šifriranog zapisa\relax }{figure.caption.15}{}}
\@writefile{toc}{\contentsline {section}{\numberline {5.3}De\IeC {\v s}ifriranje na klijentu}{26}{section.5.3}}
\@writefile{toc}{\contentsline {subsection}{\numberline {5.3.1}HTTP djelomi\IeC {\v c}ni zahtjevi}{27}{subsection.5.3.1}}
\@writefile{lof}{\contentsline {figure}{\numberline {5.6}{\ignorespaces Primjer ispitivanja podr\IeC {\v s}ke djelomi\IeC {\v c}nih zahtjeva\relax }}{27}{figure.caption.16}}
\newlabel{fig:testing-partial-support}{{5.6}{27}{Primjer ispitivanja podrške djelomičnih zahtjeva\relax }{figure.caption.16}{}}
\@writefile{lof}{\contentsline {figure}{\numberline {5.7}{\ignorespaces Primjer djelomi\IeC {\v c}nog zahtjeva\relax }}{28}{figure.caption.17}}
\newlabel{fig:partial-request}{{5.7}{28}{Primjer djelomičnog zahtjeva\relax }{figure.caption.17}{}}
\@writefile{lof}{\contentsline {figure}{\numberline {5.8}{\ignorespaces Primjer odgovora na djelomi\IeC {\v c}ni zahtjev\relax }}{28}{figure.caption.18}}
\newlabel{fig:partial-response}{{5.8}{28}{Primjer odgovora na djelomični zahtjev\relax }{figure.caption.18}{}}
\@writefile{toc}{\contentsline {subsection}{\numberline {5.3.2}De\IeC {\v s}ifriranje pro\IeC {\v s}irivanjem AVPlayer komponente}{29}{subsection.5.3.2}}
\@writefile{lof}{\contentsline {figure}{\numberline {5.9}{\ignorespaces Pro\IeC {\v s}irivanje komponente AVPlayer\relax }}{29}{figure.caption.19}}
\newlabel{fig:av-player-delegate}{{5.9}{29}{Proširivanje komponente AVPlayer\relax }{figure.caption.19}{}}
\@writefile{toc}{\contentsline {subsection}{\numberline {5.3.3}De\IeC {\v s}ifriranje lokalnim HTTP posrednikom}{30}{subsection.5.3.3}}
\@writefile{lof}{\contentsline {figure}{\numberline {5.10}{\ignorespaces Lokalni HTTP poslu\IeC {\v z}itelj kao posrednik izme\IeC {\dj }u programske potpore i medijskog resursa\relax }}{30}{figure.caption.20}}
\newlabel{fig:http-proxy}{{5.10}{30}{Lokalni HTTP poslužitelj kao posrednik između programske potpore i medijskog resursa\relax }{figure.caption.20}{}}
\@writefile{toc}{\contentsline {subsection}{\numberline {5.3.4}Algoritam de\IeC {\v s}ifriranja}{31}{subsection.5.3.4}}
\@writefile{lof}{\contentsline {figure}{\numberline {5.11}{\ignorespaces Priprema komponente za de\IeC {\v s}ifriranje dijela zapisa\relax }}{32}{figure.caption.21}}
\newlabel{fig:decryptor}{{5.11}{32}{Priprema komponente za dešifriranje dijela zapisa\relax }{figure.caption.21}{}}
\@writefile{lof}{\contentsline {figure}{\numberline {5.12}{\ignorespaces Primjer rastavljanja poruke u blokove\relax }}{34}{figure.caption.22}}
\newlabel{fig:leftoverbytes}{{5.12}{34}{Primjer rastavljanja poruke u blokove\relax }{figure.caption.22}{}}
\@writefile{toc}{\contentsline {chapter}{\numberline {6}Analiza rje\IeC {\v s}enja}{35}{chapter.6}}
\@writefile{lof}{\addvspace {10\p@ }}
\@writefile{lot}{\addvspace {10\p@ }}
\@writefile{toc}{\contentsline {section}{\numberline {6.1}Kori\IeC {\v s}tene tehnologije}{35}{section.6.1}}
\@writefile{toc}{\contentsline {subsection}{\numberline {6.1.1}AWS S3 skladi\IeC {\v s}ta}{35}{subsection.6.1.1}}
\@writefile{lof}{\contentsline {figure}{\numberline {6.1}{\ignorespaces Primjer operacija nad skladi\IeC {\v s}tem podataka\relax }}{36}{figure.caption.23}}
\newlabel{fig:s3-operations}{{6.1}{36}{Primjer operacija nad skladištem podataka\relax }{figure.caption.23}{}}
\@writefile{toc}{\contentsline {subsection}{\numberline {6.1.2}AWS Lambda funkcije}{36}{subsection.6.1.2}}
\@writefile{lof}{\contentsline {figure}{\numberline {6.2}{\ignorespaces Primjer stvaranja Lambda funkcije\relax }}{37}{figure.caption.24}}
\newlabel{fig:lambdafunctions}{{6.2}{37}{Primjer stvaranja Lambda funkcije\relax }{figure.caption.24}{}}
\@writefile{lof}{\contentsline {figure}{\numberline {6.3}{\ignorespaces Didheka prava izvr\IeC {\v s}avanja Lambda funkcije S3 skladi\IeC {\v s}tu\relax }}{37}{figure.caption.25}}
\newlabel{fig:lambdapermission}{{6.3}{37}{Didheka prava izvršavanja Lambda funkcije S3 skladištu\relax }{figure.caption.25}{}}
\@writefile{lof}{\contentsline {figure}{\numberline {6.4}{\ignorespaces AWS arhitektura platforme\relax }}{38}{figure.caption.26}}
\newlabel{fig:aws-architecture}{{6.4}{38}{AWS arhitektura platforme\relax }{figure.caption.26}{}}
\@writefile{toc}{\contentsline {section}{\numberline {6.2}Ostale tehnologije}{38}{section.6.2}}
\@writefile{toc}{\contentsline {section}{\numberline {6.3}Analiza mjerljivih svojstava}{39}{section.6.3}}
\@writefile{lof}{\contentsline {figure}{\numberline {6.5}{\ignorespaces Izvje\IeC {\v s}taji o izvr\IeC {\v s}avanju AWS Lambda funkcije \IeC {\v s}ifriranja\relax }}{39}{figure.caption.27}}
\newlabel{fig:lambda-stats}{{6.5}{39}{Izvještaji o izvršavanju AWS Lambda funkcije šifriranja\relax }{figure.caption.27}{}}
\@writefile{lof}{\contentsline {figure}{\numberline {6.6}{\ignorespaces Optere\IeC {\'c}enje procesora pri reproduciranju audio zapisa veli\IeC {\v c}ine 80 MB\relax }}{40}{figure.caption.28}}
\newlabel{fig:large-mp3}{{6.6}{40}{Opterećenje procesora pri reproduciranju audio zapisa veličine 80 MB\relax }{figure.caption.28}{}}
\@writefile{lof}{\contentsline {figure}{\numberline {6.7}{\ignorespaces Optere\IeC {\'c}enje procesora pri reproduciranju audio zapisa veli\IeC {\v c}ine 5,40 MB\relax }}{40}{figure.caption.29}}
\newlabel{fig:small-mp3}{{6.7}{40}{Opterećenje procesora pri reproduciranju audio zapisa veličine 5,40 MB\relax }{figure.caption.29}{}}
\@writefile{toc}{\contentsline {section}{\numberline {6.4}Vektori napada}{41}{section.6.4}}
\bibdata{literatura}
\@writefile{toc}{\contentsline {chapter}{\numberline {7}Zaklju\IeC {\v c}ak}{43}{chapter.7}}
\@writefile{lof}{\addvspace {10\p@ }}
\@writefile{lot}{\addvspace {10\p@ }}
\bibcite{aeswiki}{{1}{}{{aes}}{{}}}
\bibcite{azure}{{2}{}{{azu}}{{}}}
\bibcite{cisco}{{3}{}{{cis}}{{}}}
\bibcite{ecc}{{4}{}{{ecc}}{{}}}
\bibcite{europarl-ott}{{5}{}{{eur}}{{}}}
\bibcite{gartner}{{6}{}{{gar}}{{}}}
\bibcite{hackernoon}{{7}{}{{hac}}{{}}}
\bibcite{modes}{{8}{}{{mod}}{{}}}
\bibcite{ott-video-services-report}{{9}{}{{ott}}{{}}}
\@writefile{toc}{\contentsline {chapter}{Literatura}{44}{chapter*.30}}
\bibcite{state-of-ott}{{10}{}{{sta}}{{}}}
\bibcite{symmetric-wiki}{{11}{}{{sym}}{{}}}
\bibcite{what-is-ott}{{12}{}{{wha}}{{}}}
\bibcite{whitebox}{{13}{}{{whi}}{{}}}
\bibcite{drm-state}{{14}{2002}{{Fetscherin}}{{}}}
\bibcite{drm-content}{{15}{2003}{{Qiong~Liu}}{{}}}
\bibstyle{fer}
